<?xml version="1.0" encoding="UTF-8" standalone="no"?>
<svg
   xmlns:dc="http://purl.org/dc/elements/1.1/"
   xmlns:cc="http://creativecommons.org/ns#"
   xmlns:rdf="http://www.w3.org/1999/02/22-rdf-syntax-ns#"
   xmlns:svg="http://www.w3.org/2000/svg"
   xmlns="http://www.w3.org/2000/svg"
   xmlns:sodipodi="http://sodipodi.sourceforge.net/DTD/sodipodi-0.dtd"
   xmlns:inkscape="http://www.inkscape.org/namespaces/inkscape"
   width="603"
   height="704"
   version="1.1"
   id="svg4"
   sodipodi:docname="Azure_Heraldic_Shield - 複製.svg"
   inkscape:version="0.92.3 (2405546, 2018-03-11)">
  <metadata
     id="metadata10">
    <rdf:RDF>
      <cc:Work
         rdf:about="">
        <dc:format>image/svg+xml</dc:format>
        <dc:type
           rdf:resource="http://purl.org/dc/dcmitype/StillImage" />
      </cc:Work>
    </rdf:RDF>
  </metadata>
  <defs
     id="defs8" />
  <sodipodi:namedview
     pagecolor="#ffffff"
     bordercolor="#666666"
     borderopacity="1"
     objecttolerance="10"
     gridtolerance="10"
     guidetolerance="10"
     inkscape:pageopacity="0"
     inkscape:pageshadow="2"
     inkscape:window-width="1164"
     inkscape:window-height="852"
     id="namedview6"
     showgrid="false"
     inkscape:zoom="0.9481659"
     inkscape:cx="316.4653"
     inkscape:cy="360.32588"
     inkscape:window-x="723"
     inkscape:window-y="45"
     inkscape:window-maximized="0"
     inkscape:current-layer="layer1" />
  <g
     inkscape:groupmode="layer"
     id="layer2"
     inkscape:label="background"
     style="display:inline">
    <path
       d="m 596.48,8.26 c 1.55,98.18 1.46,196.36 0,294.54 -1.42,94.58 -6.13,168.4 -48.5,226.1 C 496.94,598.42 411.9,648.6 302.52,697.9 193.12,648.6 108.09,598.43 57.05,528.9 14.67,471.18 9.95,397.37 8.55,302.8 7.09,204.62 7,106.44 8.55,8.26 Z"
       id="path2"
       style="fill:none;stroke:#000000;stroke-width:3"
       inkscape:connector-curvature="0" />
    <rect
       style="opacity:1;vector-effect:none;fill:none;fill-opacity:1;fill-rule:evenodd;stroke:#ffffff;stroke-width:1.00157475;stroke-linecap:butt;stroke-linejoin:miter;stroke-miterlimit:4;stroke-dasharray:none;stroke-dashoffset:0;stroke-opacity:1"
       id="rect4611"
       width="102.76804"
       height="97.04229"
       x="19.521549"
       y="44.745762" />
  </g>
  <g
     inkscape:groupmode="layer"
     id="layer1"
     inkscape:label="shieldcolor">
    <path
       style="opacity:1;vector-effect:none;fill:#a0892c;fill-opacity:1;stroke:none;stroke-width:2.27492976;stroke-linecap:butt;stroke-linejoin:miter;stroke-miterlimit:4;stroke-dasharray:none;stroke-dashoffset:0;stroke-opacity:1"
       d="M 288.72754,689.58138 C 195.74735,646.75122 132.82779,606.86408 89.39533,563.21699 66.132103,539.83881 52.307546,521.20469 40.833907,497.76108 23.498358,462.34005 15.561804,423.43098 11.791634,355.38093 10.488663,331.86282 9.1580081,39.948206 10.27247,22.111782 L 11.030666,9.9772393 H 302.99568 594.9607 l 0.33757,69.8717387 c 0.44491,92.087702 -0.84595,250.025922 -2.26059,276.586622 -4.81801,90.46016 -18.64633,136.48907 -54.49829,181.40285 -40.80424,51.11776 -105.33259,96.22885 -206.05443,144.05046 -14.5305,6.89893 -27.47263,12.76373 -28.76026,13.0329 -1.43437,0.29985 -7.24314,-1.76863 -14.99716,-5.34043 z"
       id="path831"
       inkscape:connector-curvature="0" />
  </g>
  <g
     inkscape:groupmode="layer"
     id="layer3"
     inkscape:label="thelogo"
     style="display:inline">
    <g
       transform="matrix(2.9535712,0,0,2.9535712,-70.105412,-72.96222)"
       id="g986">
      <path
         style="fill:#e60011;fill-opacity:1;fill-rule:nonzero;stroke:none"
         d="m 111.29687,138.76563 v 13.29296 h 6.50782 v -16.04687 h 16.63672 v 16.04687 h 6.51953 v -13.29296 h 10.83984 v 13.29296 h 6.51953 v -13.29296 h 8.53125 l -5.28125,-8.09766 H 154.125 v -3.46485 h 5.17969 l -5.94141,-9.10546 h -7.63672 v -3.47657 h 5.3711 l -8.11719,-12.42578 h -33.71485 l -8.11718,12.42578 h 5.37109 v 3.47657 h -7.632811 l -5.945313,9.10546 h 5.1875 v 3.46485 h -7.453125 l -5.277343,8.09766 h 8.527343 v 13.29296 h 6.519529 v -13.29296 z m 0,0"
         id="path43"
         inkscape:connector-curvature="0" />
      <path
         style="fill:#0066b5;fill-opacity:1;fill-rule:nonzero;stroke:none"
         d="m 125.86328,84.269531 c -24.74609,0 -44.812499,20.042969 -44.812499,44.761719 0,24.71484 20.066409,44.75781 44.812499,44.75781 24.74219,0 44.8086,-20.04297 44.8086,-44.75781 0,-24.71875 -20.06641,-44.761719 -44.8086,-44.761719 M 53.109375,62.027344 c 0.933594,-1.003906 1.878906,-2 2.847656,-2.964844 13.839844,12.054688 20.1875,31.375 14.976563,49.98437 l 9.070312,2.94532 C 86.695312,94.015625 103.68359,81.046875 123.80859,80.210938 v -9.535157 c -19.33203,-0.804687 -35.77734,-12.808593 -42.968746,-29.6875 1.21875,-0.625 2.453125,-1.226562 3.703125,-1.800781 6.777343,16.117188 22.722651,27.421875 41.320311,27.421875 18.59766,0 34.53906,-11.304687 41.32031,-27.421875 1.2461,0.574219 2.48438,1.175781 3.69922,1.800781 -7.1914,16.878907 -23.63672,28.882813 -42.96875,29.6875 v 9.535157 c 20.125,0.835937 37.10547,13.804687 43.80469,31.781252 l 9.07422,-2.94532 c -5.21094,-18.60937 1.13672,-37.929682 14.96484,-49.98437 0.97657,0.964844 1.92188,1.960938 2.85547,2.964844 -13.23437,11.421875 -19.07031,30.058594 -13.32422,47.710936 5.75,17.66406 21.44141,29.32031 38.86328,30.78516 -0.14843,1.36719 -0.33984,2.72265 -0.55078,4.07031 -18.29687,-1.61719 -34.80468,-13.52344 -41.54297,-31.64844 l -9.07421,2.94141 c 1.16796,4.17969 1.79296,8.59375 1.79296,13.14453 0,15.51172 -7.23437,29.33594 -18.52734,38.28906 l 5.60938,7.71485 c 16.11718,-10.69922 36.48437,-10.64063 52.23437,-1.20313 -0.62109,1.21485 -1.26562,2.41797 -1.94141,3.61328 -14.96484,-9.05078 -34.51953,-8.82812 -49.55859,2.08203 -15.04687,10.92188 -21.29297,29.42579 -17.30078,46.44532 -1.33594,0.26172 -2.69531,0.5039 -4.05078,0.71484 -4.10547,-17.88281 2.13281,-37.24219 17.30078,-49.24219 l -5.61328,-7.70312 c -7.75391,5.14453 -17.0586,8.14844 -27.06641,8.14844 -10.00781,0 -19.32422,-3.00391 -27.070311,-8.14844 l -5.609375,7.70312 c 15.167966,12 21.402346,31.35938 17.300776,49.24219 -1.35937,-0.21094 -2.71875,-0.45312 -4.05468,-0.71484 3.99218,-17.01953 -2.25391,-35.52344 -17.300784,-46.44532 -15.039062,-10.91015 -34.589844,-11.13281 -49.558594,-2.08203 -0.675781,-1.19531 -1.316406,-2.39843 -1.941406,-3.61328 15.75,-9.4375 36.121094,-9.49609 52.234375,1.20313 l 5.613281,-7.71485 c -11.296874,-8.95312 -18.527343,-22.77734 -18.527343,-38.28906 0,-4.55078 0.621093,-8.96484 1.789062,-13.14453 l -9.074219,-2.94141 c -6.738281,18.125 -23.246093,30.03125 -41.539062,31.64844 -0.210938,-1.34766 -0.402344,-2.70312 -0.554688,-4.07031 17.421876,-1.46485 33.113282,-13.1211 38.855469,-30.78516 5.742188,-17.652342 -0.08984,-36.289061 -13.316406,-47.710936"
         id="path113"
         inkscape:connector-curvature="0" />
    </g>
  </g>
</svg>
